module gitlab.com/v-bastioni/neogoji

go 1.10

require (
	github.com/golang/mock v1.3.1 // indirect
	github.com/neo4j-drivers/gobolt v1.7.4 // indirect
	github.com/neo4j/neo4j-go-driver v1.7.4
	github.com/onsi/ginkgo v1.10.2 // indirect
	github.com/onsi/gomega v1.7.0 // indirect
	github.com/pkg/errors v0.8.1 // indirect
	github.com/stretchr/testify v1.4.0 // indirect
)
